<?xml version="1.0" standalone="no"?>
<!DOCTYPE svg PUBLIC "-//W3C//DTD SVG 1.1//EN" "http://www.w3.org/Graphics/SVG/1.1/DTD/svg11.dtd">
<svg xmlns="http://www.w3.org/2000/svg">
<metadata>Copyright (C) 2022 by original authors @ fontello.com</metadata>
<defs>
<font id="fontello" horiz-adv-x="1000" >
<font-face font-family="fontello" font-weight="400" font-stretch="normal" units-per-em="1000" ascent="850" descent="-150" />
<missing-glyph horiz-adv-x="1000" />
<glyph glyph-name="gmail" unicode="&#xe800;" d="M0-97l0 897 185 0 9-8 825 0 9 8 174 0 0-900-171 0 0 7-855 0 0-4-176 0z m176 132l0-80 855 0 0 74-345 259-79-65-86 70z m0 60l307 229-307 252 0-481z m83 641l348-298 347 298-695 0z m465-417l307-230 0 484z" horiz-adv-x="1202" />

<glyph glyph-name="phone-squared" unicode="&#xf098;" d="M714 184q0 6-1 9t-10 9-22 14-27 15-25 14-16 9q-3 1-11 7t-14 8-11 3q-9 0-21-12t-22-25-21-25-19-11q-4 0-9 2t-9 3-9 6-8 4q-55 31-95 71t-71 95q-1 2-5 8t-5 9-4 9-2 9q0 8 12 19t25 22 25 22 11 20q0 6-2 12t-9 14-7 10q-2 4-8 16t-14 25-15 27-14 23-9 10-9 1q-27 0-56-13-26-11-45-52t-19-73q0-9 1-19t3-17 5-18 6-17 7-18 6-17q33-92 121-179t178-121q4-1 17-6t19-7 16-5 19-5 17-3 19-2q31 0 72 19t53 45q12 30 12 56z m143 434v-536q0-66-47-113t-114-48h-535q-67 0-114 48t-47 113v536q0 66 47 113t114 48h535q67 0 114-48t47-113z" horiz-adv-x="857.1" />

<glyph glyph-name="mail-squared" unicode="&#xf199;" d="M696 779q67 0 114-48t47-113v-536q0-66-47-113t-114-48h-535q-67 0-114 48t-47 113v536q0 66 47 113t114 48h535z m18-590v244q-17-20-35-31-19-12-74-47t-85-56q-55-38-91-38-37 0-92 38-26 18-79 52t-79 52q-7 4-19 15t-17 15v-244q0-22 16-38t37-15h465q22 0 38 15t15 38z m0 320q0 23-15 39t-38 16h-465q-22 0-37-15t-16-38q0-21 17-43t38-36q26-18 76-50t73-46q1-1 9-6t12-8 12-7 13-8 12-5 12-4 12-2 11 2 13 4 12 5 13 8 11 7 12 8 10 6l149 97q19 13 37 35t17 41z" horiz-adv-x="857.1" />

<glyph glyph-name="behance-squared" unicode="&#xf1b5;" d="M696 779q67 0 114-48t47-113v-536q0-66-47-113t-114-48h-535q-67 0-114 48t-47 113v536q0 66 47 113t114 48h535z m-417-205h-208v-439h214q65 0 110 32t44 95q0 88-80 111 60 30 60 92 0 32-11 54t-31 34-44 16-54 5z m-13-178h-98v103h91q66 0 66-50 0-53-59-53z m5-187h-103v122h105q70 0 70-64 0-58-72-58z m363-17q-38 0-58 21t-20 59h229q1 6 1 17 0 74-42 123t-113 50q-72 0-118-48t-45-121q0-75 44-121t119-46q114 0 149 107h-77q-7-19-27-30t-42-11z m-6 204q63 0 70-68h-142q2 31 22 49t50 19z m-90 148h178v-43h-178v43z" horiz-adv-x="857.1" />

<glyph glyph-name="facebook-squared" unicode="&#xf308;" d="M696 779q67 0 114-48t47-113v-536q0-66-47-113t-114-48h-104v333h111l16 129h-127v83q0 31 13 46t51 16l68 1v115q-35 5-100 5-75 0-121-44t-45-127v-95h-112v-129h112v-333h-297q-67 0-114 48t-47 113v536q0 66 47 113t114 48h535z" horiz-adv-x="857.1" />

<glyph glyph-name="linkedin-squared" unicode="&#xf30c;" d="M132 61h129v387h-129v-387z m138 507q-1 29-21 48t-51 19-53-19-21-48q0-29 20-48t52-19h0q33 0 53 19t21 48z m326-507h129v222q0 86-41 130t-107 44q-76 0-117-65h1v56h-129q2-37 0-387h129v217q0 21 4 31 8 19 25 33t41 14q65 0 65-88v-207z m261 557v-536q0-66-47-113t-114-48h-535q-67 0-114 48t-47 113v536q0 66 47 113t114 48h535q67 0 114-48t47-113z" horiz-adv-x="857.1" />
</font>
</defs>
</svg>
